{
  "Comment.nvim": { "branch": "master", "commit": "0236521ea582747b58869cb72f70ccfa967d2e89" },
  "FTerm.nvim": { "branch": "master", "commit": "d1320892cc2ebab472935242d9d992a2c9570180" },
  "LuaSnip": { "branch": "master", "commit": "ea7d7ea510c641c4f15042becd27f35b3e5b3c2b" },
  "autoclose.nvim": { "branch": "main", "commit": "d8bebaaf8c48bd0cd0645d20592548eab279fea3" },
  "cmp-nvim-lsp": { "branch": "main", "commit": "44b16d11215dce86f253ce0c30949813c0a90765" },
  "cmp_luasnip": { "branch": "master", "commit": "18095520391186d634a0045dacaa346291096566" },
  "fidget.nvim": { "branch": "main", "commit": "0ba1e16d07627532b6cae915cc992ecac249fb97" },
  "friendly-snippets": { "branch": "main", "commit": "00e191fea2cfbbdd378243f35b5953296537a116" },
  "gitsigns.nvim": { "branch": "main", "commit": "d927caa075df63bf301d92f874efb72fd22fd3b4" },
  "haskell-tools.nvim": { "branch": "master", "commit": "b19df600da8ef5fb4fb280815415ebd2a4228f0f" },
  "indent-blankline.nvim": { "branch": "master", "commit": "9637670896b68805430e2f72cf5d16be5b97a22a" },
  "lazy.nvim": { "branch": "main", "commit": "96584866b9c5e998cbae300594d0ccfd0c464627" },
  "lualine.nvim": { "branch": "master", "commit": "45e27ca739c7be6c49e5496d14fcf45a303c3a63" },
  "mason-lspconfig.nvim": { "branch": "main", "commit": "dfdd771b792fbb4bad8e057d72558255695aa1a7" },
  "mason.nvim": { "branch": "main", "commit": "0942198fb9a998b6ccee36fb8dd7495eb8ba659c" },
  "neo-presence.lua": { "branch": "main", "commit": "eb489b1ba4b2c2aab815e8007f1d26758806e7ed" },
  "neo-tree.nvim": { "branch": "main", "commit": "71d5559f7fa8e28a51570134e300b62f141a2f34" },
  "neodev.nvim": { "branch": "main", "commit": "183f5a7357397260b631d6cccceccc3621b50f78" },
  "nui.nvim": { "branch": "main", "commit": "aa1b4c1e05983ff7debd2b4b2788651db099de2f" },
  "nvim": { "branch": "main", "commit": "135f9b01386fa18da6d75c16ceb83e1aa3669430" },
  "nvim-cmp": { "branch": "main", "commit": "5dce1b778b85c717f6614e3f4da45e9f19f54435" },
  "nvim-code-action-menu": { "branch": "main", "commit": "e4399dbaf6eabff998d3d5f1cbcd8d9933710027" },
  "nvim-colorizer.lua": { "branch": "master", "commit": "dde3084106a70b9a79d48f426f6d6fec6fd203f7" },
  "nvim-lspconfig": { "branch": "master", "commit": "a27356f1ef9c11e1f459cc96a3fcac5c265e72d6" },
  "nvim-surround": { "branch": "main", "commit": "633a0ab03159569a66b65671b0ffb1a6aed6cf18" },
  "nvim-treesitter": { "branch": "master", "commit": "17b943e7c5cc2b2db3ac7b5720fbd42e75a00d8d" },
  "nvim-treesitter-textobjects": { "branch": "master", "commit": "bd103502252027434ec42f628d2dbf54821d4ce6" },
  "nvim-web-devicons": { "branch": "master", "commit": "bc11ee2498de2310de5776477dd9dce65d03b464" },
  "onedark.nvim": { "branch": "master", "commit": "7bd3558c17045b95c961d28861c1b3bd9bdc992a" },
  "plenary.nvim": { "branch": "master", "commit": "0dbe561ae023f02c2fb772b879e905055b939ce3" },
  "telescope.nvim": { "branch": "0.1.x", "commit": "776b509f80dd49d8205b9b0d94485568236d1192" },
  "typst-preview.nvim": { "branch": "master", "commit": "eca78fffe12c350e0147de228e570efd2851d024" },
  "typst.vim": { "branch": "main", "commit": "630bb8b7faf1fe02c253673a37a70c135ad43a40" },
  "vim-fugitive": { "branch": "master", "commit": "572c8510123cbde02e8a1dafcd376c98e1e13f43" },
  "vim-rhubarb": { "branch": "master", "commit": "ee69335de176d9325267b0fd2597a22901d927b1" },
  "vim-sleuth": { "branch": "master", "commit": "1cc4557420f215d02c4d2645a748a816c220e99b" },
  "which-key.nvim": { "branch": "main", "commit": "7ccf476ebe0445a741b64e36c78a682c1c6118b7" }
}